# Logfile created on 2014-02-26 10:43:05 +0000 by logger.rb/44203
I, [2014-02-26T10:43:05.054745 #70583]  INFO -- : 0:  awesome_print (1.2.0) from /Users/stephen/.rvm/gems/ruby-2.1.0@primes/specifications/awesome_print-1.2.0.gemspec
I, [2014-02-26T10:43:05.055155 #70583]  INFO -- : 0:  bundler (1.5.1) from /Users/stephen/.rvm/gems/ruby-2.1.0@global/specifications/bundler-1.5.1.gemspec
I, [2014-02-26T10:43:39.597254 #70622]  INFO -- : 0:  awesome_print (1.2.0) from /Users/stephen/.rvm/gems/ruby-2.1.0@primes/specifications/awesome_print-1.2.0.gemspec
I, [2014-02-26T10:43:40.485045 #70622]  INFO -- : 0:  diff-lcs (1.2.5) from /Users/stephen/.rvm/gems/ruby-2.1.0@primes/specifications/diff-lcs-1.2.5.gemspec
I, [2014-02-26T10:43:41.615320 #70622]  INFO -- : 0:  rspec-core (2.14.7) from /Users/stephen/.rvm/gems/ruby-2.1.0@primes/specifications/rspec-core-2.14.7.gemspec
I, [2014-02-26T10:43:42.598158 #70622]  INFO -- : 0:  rspec-expectations (2.14.5) from /Users/stephen/.rvm/gems/ruby-2.1.0@primes/specifications/rspec-expectations-2.14.5.gemspec
I, [2014-02-26T10:43:43.580320 #70622]  INFO -- : 0:  rspec-mocks (2.14.6) from /Users/stephen/.rvm/gems/ruby-2.1.0@primes/specifications/rspec-mocks-2.14.6.gemspec
I, [2014-02-26T10:43:44.399380 #70622]  INFO -- : 0:  rspec (2.14.1) from /Users/stephen/.rvm/gems/ruby-2.1.0@primes/specifications/rspec-2.14.1.gemspec
I, [2014-02-26T10:43:44.399874 #70622]  INFO -- : 0:  bundler (1.5.1) from /Users/stephen/.rvm/gems/ruby-2.1.0@global/specifications/bundler-1.5.1.gemspec
